Design Route Status
                                               :      # nets :
   ------------------------------------------- : ----------- :
   # of logical nets.......................... :         422 :
       # of nets not needing routing.......... :         118 :
           # of internally routed nets........ :         118 :
       # of routable nets..................... :         304 :
           # of fully routed nets............. :         304 :
       # of nets with routing errors.......... :           0 :
   ------------------------------------------- : ----------- :

