#-----------------------------------------------------------
# Webtalk v2021.1 (64-bit)
# SW Build 3247384 on Thu Jun 10 19:36:33 MDT 2021
# IP Build 3246043 on Fri Jun 11 00:30:35 MDT 2021
# Start of session at: Wed Jan 12 22:21:19 2022
# Process ID: 12200
# Current directory: C:/Users/agust/OneDrive/Escritorio/TRABAJOSEDVHD/top_tb/top_tb.sim/sim_1/behav/xsim
# Command line: wbtcv.exe -mode batch -source C:/Users/agust/OneDrive/Escritorio/TRABAJOSEDVHD/top_tb/top_tb.sim/sim_1/behav/xsim/xsim.dir/top_tb_behav/webtalk/xsim_webtalk.tcl -notrace
# Log file: C:/Users/agust/OneDrive/Escritorio/TRABAJOSEDVHD/top_tb/top_tb.sim/sim_1/behav/xsim/webtalk.log
# Journal file: C:/Users/agust/OneDrive/Escritorio/TRABAJOSEDVHD/top_tb/top_tb.sim/sim_1/behav/xsim\webtalk.jou
#-----------------------------------------------------------
source C:/Users/agust/OneDrive/Escritorio/TRABAJOSEDVHD/top_tb/top_tb.sim/sim_1/behav/xsim/xsim.dir/top_tb_behav/webtalk/xsim_webtalk.tcl -notrace
INFO: [Common 17-186] 'C:/Users/agust/OneDrive/Escritorio/TRABAJOSEDVHD/top_tb/top_tb.sim/sim_1/behav/xsim/xsim.dir/top_tb_behav/webtalk/usage_statistics_ext_xsim.xml' has been successfully sent to Xilinx on Wed Jan 12 22:21:23 2022. For additional details about this file, please refer to the WebTalk help file at C:/Xilinx/Vivado/2021.1/doc/webtalk_introduction.html.
INFO: [Common 17-206] Exiting Webtalk at Wed Jan 12 22:21:23 2022...
